GFORTRAN module version '6' created from MTSort_QDB.f90 on Thu Aug 29 08:39:58 2013
MD5:13aa80a2c49cde50df6cbdabfab81b45 -- If you edit this, you'll get what you deserve.

(() () () () () () () () () () () () () () () () () () () () () () () ()
() () ())

()

()

()

()

()

(2 'group' 'types' 'group' 1 ((DERIVED UNKNOWN-INTENT UNKNOWN-PROC
UNKNOWN UNKNOWN 0 0) (UNKNOWN 0 0 0 UNKNOWN ()) 0 0 () () 0 ((3 'value'
(REAL 4 0 0 REAL ()) () (UNKNOWN-FL UNKNOWN-INTENT UNKNOWN-PROC UNKNOWN
UNKNOWN 0 0) UNKNOWN-ACCESS ()) (4 'order' (INTEGER 8 0 0 INTEGER ()) ()
(UNKNOWN-FL UNKNOWN-INTENT UNKNOWN-PROC UNKNOWN UNKNOWN 0 0)
UNKNOWN-ACCESS ())) PUBLIC (() () () ()) () 0 0 5154009)
5 'int32' 'iso_fortran_env' 'int32' 1 ((PARAMETER UNKNOWN-INTENT
UNKNOWN-PROC UNKNOWN UNKNOWN 0 0) (INTEGER 4 0 0 INTEGER ()) 0 0 () (
CONSTANT (INTEGER 4 0 0 INTEGER ()) 0 '4') () 0 () () () 1 8)
6 'int64' 'iso_fortran_env' 'int64' 1 ((PARAMETER UNKNOWN-INTENT
UNKNOWN-PROC UNKNOWN UNKNOWN 0 0) (INTEGER 4 0 0 INTEGER ()) 0 0 () (
CONSTANT (INTEGER 4 0 0 INTEGER ()) 0 '8') () 0 () () () 1 9)
7 'iso_fortran_env' 'iso_fortran_env' 'iso_fortran_env' 1 ((MODULE
UNKNOWN-INTENT UNKNOWN-PROC UNKNOWN UNKNOWN 0 0 INTRINSIC) (UNKNOWN 0 0
0 UNKNOWN ()) 0 0 () () 0 () () () 1 0)
8 'real32' 'iso_fortran_env' 'real32' 1 ((PARAMETER UNKNOWN-INTENT
UNKNOWN-PROC UNKNOWN UNKNOWN 0 0) (INTEGER 4 0 0 INTEGER ()) 0 0 () (
CONSTANT (INTEGER 4 0 0 INTEGER ()) 0 '4') () 0 () () () 1 15)
9 'types' 'types' 'types' 1 ((MODULE UNKNOWN-INTENT UNKNOWN-PROC UNKNOWN
UNKNOWN 0 0) (UNKNOWN 0 0 0 UNKNOWN ()) 0 0 () () 0 () () () 0 0)
)

('group' 0 2 'int32' 0 5 'int64' 0 6 'iso_fortran_env' 0 7 'real32' 0 8
'types' 0 9)
