GFORTRAN module version '6' created from MTSort_QRS.f90 on Sun Aug 18 14:49:33 2013
MD5:eeacdb94560d04ae407287aa585947cc -- If you edit this, you'll get what you deserve.

(() () () () () () () () () () () () () () () () () () () () () () ()
() () () ())

()

()

()

()

()

(2 'int32' 'iso_fortran_env' 'int32' 1 ((PARAMETER UNKNOWN-INTENT
UNKNOWN-PROC UNKNOWN UNKNOWN 0 0) (INTEGER 4 0 0 INTEGER ()) 0 0 () (
CONSTANT (INTEGER 4 0 0 INTEGER ()) 0 '4') () 0 () () () 1 8)
3 'int64' 'iso_fortran_env' 'int64' 1 ((PARAMETER UNKNOWN-INTENT
UNKNOWN-PROC UNKNOWN UNKNOWN 0 0) (INTEGER 4 0 0 INTEGER ()) 0 0 () (
CONSTANT (INTEGER 4 0 0 INTEGER ()) 0 '8') () 0 () () () 1 9)
4 'iso_fortran_env' 'iso_fortran_env' 'iso_fortran_env' 1 ((MODULE
UNKNOWN-INTENT UNKNOWN-PROC UNKNOWN UNKNOWN 0 0 INTRINSIC) (UNKNOWN 0 0
0 UNKNOWN ()) 0 0 () () 0 () () () 1 0)
5 'make_data' 'sort' 'make_data' 1 ((PROCEDURE UNKNOWN-INTENT
MODULE-PROC DECL UNKNOWN 0 0 SUBROUTINE IMPLICIT_PURE) (UNKNOWN 0 0 0
UNKNOWN ()) 6 0 (7 8) () 0 () () () 0 0)
9 'mtsort' 'sort' 'mtsort' 1 ((PROCEDURE UNKNOWN-INTENT MODULE-PROC DECL
UNKNOWN 0 0 SUBROUTINE ALWAYS_EXPLICIT) (UNKNOWN 0 0 0 UNKNOWN ()) 10 0
(11 12 13 14) () 0 () () () 0 0)
15 'real32' 'iso_fortran_env' 'real32' 1 ((PARAMETER UNKNOWN-INTENT
UNKNOWN-PROC UNKNOWN UNKNOWN 0 0) (INTEGER 4 0 0 INTEGER ()) 0 0 () (
CONSTANT (INTEGER 4 0 0 INTEGER ()) 0 '4') () 0 () () () 1 15)
16 'sort' 'sort' 'sort' 1 ((MODULE UNKNOWN-INTENT UNKNOWN-PROC UNKNOWN
UNKNOWN 0 0) (UNKNOWN 0 0 0 UNKNOWN ()) 0 0 () () 0 () () () 0 0)
11 'a' '' 'a' 10 ((VARIABLE INOUT UNKNOWN-PROC UNKNOWN UNKNOWN 0 0
DIMENSION DUMMY) (REAL 4 0 0 REAL ()) 0 0 () (1 0 EXPLICIT (CONSTANT (
INTEGER 4 0 0 INTEGER ()) 0 '1') (VARIABLE (INTEGER 8 0 0 INTEGER ()) 0
12 ())) 0 () () () 0 0)
12 'na' '' 'na' 10 ((VARIABLE IN UNKNOWN-PROC UNKNOWN UNKNOWN 0 0 DUMMY)
(INTEGER 8 0 0 INTEGER ()) 0 0 () () 0 () () () 0 0)
13 'direction' '' 'direction' 10 ((VARIABLE IN UNKNOWN-PROC UNKNOWN
UNKNOWN 0 0 DUMMY) (CHARACTER 1 0 0 CHARACTER ((CONSTANT (INTEGER 4 0 0
INTEGER ()) 0 '1'))) 0 0 () () 0 () () () 0 0)
14 'nt' '' 'nt' 10 ((VARIABLE IN UNKNOWN-PROC UNKNOWN UNKNOWN 0 0
OPTIONAL DUMMY) (INTEGER 4 0 0 INTEGER ()) 0 0 () () 0 () () () 0 0)
8 'na' '' 'na' 6 ((VARIABLE IN UNKNOWN-PROC UNKNOWN UNKNOWN 0 0 DUMMY) (
INTEGER 8 0 0 INTEGER ()) 0 0 () () 0 () () () 0 0)
7 'a' '' 'a' 6 ((VARIABLE OUT UNKNOWN-PROC UNKNOWN UNKNOWN 0 0 DIMENSION
DUMMY) (REAL 4 0 0 REAL ()) 0 0 () (1 0 EXPLICIT (CONSTANT (INTEGER 4 0
0 INTEGER ()) 0 '1') (VARIABLE (INTEGER 8 0 0 INTEGER ()) 0 8 ())) 0 ()
() () 0 0)
)

('int32' 0 2 'int64' 0 3 'iso_fortran_env' 0 4 'make_data' 0 5 'mtsort'
0 9 'real32' 0 15 'sort' 0 16)
