GFORTRAN module version '6' created from MTSort_QRB.f90 on Thu Aug 29 08:58:40 2013
MD5:c4e19d7d011207e3c9b6194384028e6a -- If you edit this, you'll get what you deserve.

(() () () () () () () () () () () () () () () () () () () () () () ()
() () () ())

()

()

()

()

()

(2 'int32' 'iso_fortran_env' 'int32' 1 ((PARAMETER UNKNOWN-INTENT
UNKNOWN-PROC UNKNOWN UNKNOWN 0 0) (INTEGER 4 0 0 INTEGER ()) 0 0 () (
CONSTANT (INTEGER 4 0 0 INTEGER ()) 0 '4') () 0 () () () 1 8)
3 'int64' 'iso_fortran_env' 'int64' 1 ((PARAMETER UNKNOWN-INTENT
UNKNOWN-PROC UNKNOWN UNKNOWN 0 0) (INTEGER 4 0 0 INTEGER ()) 0 0 () (
CONSTANT (INTEGER 4 0 0 INTEGER ()) 0 '8') () 0 () () () 1 9)
4 'iso_fortran_env' 'iso_fortran_env' 'iso_fortran_env' 1 ((MODULE
UNKNOWN-INTENT UNKNOWN-PROC UNKNOWN UNKNOWN 0 0 INTRINSIC) (UNKNOWN 0 0
0 UNKNOWN ()) 0 0 () () 0 () () () 1 0)
5 'lookupascending' 'sort' 'lookupascending' 1 ((PROCEDURE
UNKNOWN-INTENT MODULE-PROC DECL UNKNOWN 0 0 FUNCTION IMPLICIT_PURE) (
INTEGER 8 0 0 INTEGER ()) 6 0 (7 8 9) () 5 () () () 0 0)
10 'lookupdescending' 'sort' 'lookupdescending' 1 ((PROCEDURE
UNKNOWN-INTENT MODULE-PROC DECL UNKNOWN 0 0 FUNCTION IMPLICIT_PURE) (
INTEGER 8 0 0 INTEGER ()) 11 0 (12 13 14) () 10 () () () 0 0)
15 'make_data' 'sort' 'make_data' 1 ((PROCEDURE UNKNOWN-INTENT
MODULE-PROC DECL UNKNOWN 0 0 SUBROUTINE IMPLICIT_PURE) (UNKNOWN 0 0 0
UNKNOWN ()) 16 0 (17 18) () 0 () () () 0 0)
19 'merge8a_mt' 'sort' 'merge8a_mt' 1 ((PROCEDURE UNKNOWN-INTENT
MODULE-PROC DECL UNKNOWN 0 0 SUBROUTINE) (UNKNOWN 0 0 0 UNKNOWN ()) 20 0
(21 22 23 24 25 26 27) () 0 () () () 0 0)
28 'merge8d_mt' 'sort' 'merge8d_mt' 1 ((PROCEDURE UNKNOWN-INTENT
MODULE-PROC DECL UNKNOWN 0 0 SUBROUTINE) (UNKNOWN 0 0 0 UNKNOWN ()) 29 0
(30 31 32 33 34 35 36) () 0 () () () 0 0)
37 'mtsort' 'sort' 'mtsort' 1 ((PROCEDURE UNKNOWN-INTENT MODULE-PROC
DECL UNKNOWN 0 0 SUBROUTINE ALWAYS_EXPLICIT) (UNKNOWN 0 0 0 UNKNOWN ())
38 0 (39 40 41 42) () 0 () () () 0 0)
43 'real32' 'iso_fortran_env' 'real32' 1 ((PARAMETER UNKNOWN-INTENT
UNKNOWN-PROC UNKNOWN UNKNOWN 0 0) (INTEGER 4 0 0 INTEGER ()) 0 0 () (
CONSTANT (INTEGER 4 0 0 INTEGER ()) 0 '4') () 0 () () () 1 15)
44 'sort' 'sort' 'sort' 1 ((MODULE UNKNOWN-INTENT UNKNOWN-PROC UNKNOWN
UNKNOWN 0 0) (UNKNOWN 0 0 0 UNKNOWN ()) 0 0 () () 0 () () () 0 0)
39 'a' '' 'a' 38 ((VARIABLE INOUT UNKNOWN-PROC UNKNOWN UNKNOWN 0 0
DIMENSION DUMMY) (REAL 4 0 0 REAL ()) 0 0 () (1 0 EXPLICIT (CONSTANT (
INTEGER 4 0 0 INTEGER ()) 0 '1') (VARIABLE (INTEGER 8 0 0 INTEGER ()) 0
40 ())) 0 () () () 0 0)
40 'na' '' 'na' 38 ((VARIABLE IN UNKNOWN-PROC UNKNOWN UNKNOWN 0 0 DUMMY)
(INTEGER 8 0 0 INTEGER ()) 0 0 () () 0 () () () 0 0)
41 'direction' '' 'direction' 38 ((VARIABLE IN UNKNOWN-PROC UNKNOWN
UNKNOWN 0 0 DUMMY) (CHARACTER 1 0 0 CHARACTER ((CONSTANT (INTEGER 4 0 0
INTEGER ()) 0 '1'))) 0 0 () () 0 () () () 0 0)
42 'nt' '' 'nt' 38 ((VARIABLE IN UNKNOWN-PROC UNKNOWN UNKNOWN 0 0
OPTIONAL DUMMY) (INTEGER 4 0 0 INTEGER ()) 0 0 () () 0 () () () 0 0)
22 'na' '' 'na' 20 ((VARIABLE IN UNKNOWN-PROC UNKNOWN UNKNOWN 0 0 DUMMY)
(INTEGER 8 0 0 INTEGER ()) 0 0 () () 0 () () () 0 0)
21 'a' '' 'a' 20 ((VARIABLE IN UNKNOWN-PROC UNKNOWN UNKNOWN 0 0
DIMENSION DUMMY) (REAL 4 0 0 REAL ()) 0 0 () (1 0 EXPLICIT (CONSTANT (
INTEGER 4 0 0 INTEGER ()) 0 '1') (VARIABLE (INTEGER 8 0 0 INTEGER ()) 0
22 ())) 0 () () () 0 0)
23 'b' '' 'b' 20 ((VARIABLE IN UNKNOWN-PROC UNKNOWN UNKNOWN 0 0
DIMENSION DUMMY) (REAL 4 0 0 REAL ()) 0 0 () (1 0 EXPLICIT (CONSTANT (
INTEGER 4 0 0 INTEGER ()) 0 '1') (VARIABLE (INTEGER 8 0 0 INTEGER ()) 0
24 ())) 0 () () () 0 0)
24 'nb' '' 'nb' 20 ((VARIABLE IN UNKNOWN-PROC UNKNOWN UNKNOWN 0 0 DUMMY)
(INTEGER 8 0 0 INTEGER ()) 0 0 () () 0 () () () 0 0)
25 'c' '' 'c' 20 ((VARIABLE OUT UNKNOWN-PROC UNKNOWN UNKNOWN 0 0
DIMENSION DUMMY) (REAL 4 0 0 REAL ()) 0 0 () (1 0 EXPLICIT (CONSTANT (
INTEGER 4 0 0 INTEGER ()) 0 '1') (VARIABLE (INTEGER 8 0 0 INTEGER ()) 0
26 ())) 0 () () () 0 0)
26 'nc' '' 'nc' 20 ((VARIABLE IN UNKNOWN-PROC UNKNOWN UNKNOWN 0 0 DUMMY)
(INTEGER 8 0 0 INTEGER ()) 0 0 () () 0 () () () 0 0)
27 'nt' '' 'nt' 20 ((VARIABLE IN UNKNOWN-PROC UNKNOWN UNKNOWN 0 0 DUMMY)
(INTEGER 4 0 0 INTEGER ()) 0 0 () () 0 () () () 0 0)
7 'a' '' 'a' 6 ((VARIABLE IN UNKNOWN-PROC UNKNOWN UNKNOWN 0 0 DIMENSION
DUMMY) (REAL 4 0 0 REAL ()) 0 0 () (1 0 EXPLICIT (CONSTANT (INTEGER 4 0
0 INTEGER ()) 0 '1') (VARIABLE (INTEGER 8 0 0 INTEGER ()) 0 8 ())) 0 ()
() () 0 0)
9 'value' '' 'value' 6 ((VARIABLE IN UNKNOWN-PROC UNKNOWN UNKNOWN 0 0
DUMMY) (REAL 4 0 0 REAL ()) 0 0 () () 0 () () () 0 0)
8 'na' '' 'na' 6 ((VARIABLE IN UNKNOWN-PROC UNKNOWN UNKNOWN 0 0 DUMMY) (
INTEGER 8 0 0 INTEGER ()) 0 0 () () 0 () () () 0 0)
32 'b' '' 'b' 29 ((VARIABLE IN UNKNOWN-PROC UNKNOWN UNKNOWN 0 0
DIMENSION DUMMY) (REAL 4 0 0 REAL ()) 0 0 () (1 0 EXPLICIT (CONSTANT (
INTEGER 4 0 0 INTEGER ()) 0 '1') (VARIABLE (INTEGER 8 0 0 INTEGER ()) 0
33 ())) 0 () () () 0 0)
31 'na' '' 'na' 29 ((VARIABLE IN UNKNOWN-PROC UNKNOWN UNKNOWN 0 0 DUMMY)
(INTEGER 8 0 0 INTEGER ()) 0 0 () () 0 () () () 0 0)
30 'a' '' 'a' 29 ((VARIABLE IN UNKNOWN-PROC UNKNOWN UNKNOWN 0 0
DIMENSION DUMMY) (REAL 4 0 0 REAL ()) 0 0 () (1 0 EXPLICIT (CONSTANT (
INTEGER 4 0 0 INTEGER ()) 0 '1') (VARIABLE (INTEGER 8 0 0 INTEGER ()) 0
31 ())) 0 () () () 0 0)
33 'nb' '' 'nb' 29 ((VARIABLE IN UNKNOWN-PROC UNKNOWN UNKNOWN 0 0 DUMMY)
(INTEGER 8 0 0 INTEGER ()) 0 0 () () 0 () () () 0 0)
34 'c' '' 'c' 29 ((VARIABLE OUT UNKNOWN-PROC UNKNOWN UNKNOWN 0 0
DIMENSION DUMMY) (REAL 4 0 0 REAL ()) 0 0 () (1 0 EXPLICIT (CONSTANT (
INTEGER 4 0 0 INTEGER ()) 0 '1') (VARIABLE (INTEGER 8 0 0 INTEGER ()) 0
35 ())) 0 () () () 0 0)
35 'nc' '' 'nc' 29 ((VARIABLE IN UNKNOWN-PROC UNKNOWN UNKNOWN 0 0 DUMMY)
(INTEGER 8 0 0 INTEGER ()) 0 0 () () 0 () () () 0 0)
36 'nt' '' 'nt' 29 ((VARIABLE IN UNKNOWN-PROC UNKNOWN UNKNOWN 0 0 DUMMY)
(INTEGER 4 0 0 INTEGER ()) 0 0 () () 0 () () () 0 0)
14 'value' '' 'value' 11 ((VARIABLE IN UNKNOWN-PROC UNKNOWN UNKNOWN 0 0
DUMMY) (REAL 4 0 0 REAL ()) 0 0 () () 0 () () () 0 0)
12 'a' '' 'a' 11 ((VARIABLE IN UNKNOWN-PROC UNKNOWN UNKNOWN 0 0
DIMENSION DUMMY) (REAL 4 0 0 REAL ()) 0 0 () (1 0 EXPLICIT (CONSTANT (
INTEGER 4 0 0 INTEGER ()) 0 '1') (VARIABLE (INTEGER 8 0 0 INTEGER ()) 0
13 ())) 0 () () () 0 0)
13 'na' '' 'na' 11 ((VARIABLE IN UNKNOWN-PROC UNKNOWN UNKNOWN 0 0 DUMMY)
(INTEGER 8 0 0 INTEGER ()) 0 0 () () 0 () () () 0 0)
18 'na' '' 'na' 16 ((VARIABLE IN UNKNOWN-PROC UNKNOWN UNKNOWN 0 0 DUMMY)
(INTEGER 8 0 0 INTEGER ()) 0 0 () () 0 () () () 0 0)
17 'a' '' 'a' 16 ((VARIABLE OUT UNKNOWN-PROC UNKNOWN UNKNOWN 0 0
DIMENSION DUMMY) (REAL 4 0 0 REAL ()) 0 0 () (1 0 EXPLICIT (CONSTANT (
INTEGER 4 0 0 INTEGER ()) 0 '1') (VARIABLE (INTEGER 8 0 0 INTEGER ()) 0
18 ())) 0 () () () 0 0)
)

('int32' 0 2 'int64' 0 3 'iso_fortran_env' 0 4 'lookupascending' 0 5
'lookupdescending' 0 10 'make_data' 0 15 'merge8a_mt' 0 19 'merge8d_mt'
0 28 'mtsort' 0 37 'real32' 0 43 'sort' 0 44)
